{
  "name": "MW_EXT_EditorSummaryButtons",
  "version": "1.0.0",
  "author": [
    "[https://dunaev.dev/ Yu Dunaev (dun43v)]",
    "..."
  ],
  "url": "https://gitlab.com/marketplace-mediawiki",
  "descriptionmsg": "mw-ext-editor-summary-buttons-desc",
  "license-name": "[https://gnu.org/licenses/gpl-3.0.txt GPL-3.0]",
  "type": "parserhook",
  "require": {
    "MediaWiki": ">= 1.31.0",
    "extensions": {
      "MW_EXT_Kernel": "*"
    }
  },
  "AutoloadClasses": {
    "MediaWiki\\Extension\\Marketplace\\MW_EXT_EditorSummaryButtons": "MW_EXT_EditorSummaryButtons.class.php"
  },
  "Hooks": {
    "BeforePageDisplay": [
      "MediaWiki\\Extension\\Marketplace\\MW_EXT_EditorSummaryButtons::onBeforePageDisplay"
    ]
  },
  "MessagesDirs": {
    "MW_EXT_EditorSummaryButtons": [
      "i18n"
    ]
  },
  "ResourceModules": {
    "ext.mw.editor-summary-button": {
      "scripts": [
        "scripts/main.min.js"
      ],
      "position": "bottom",
      "targets": [
        "desktop",
        "mobile"
      ]
    },
    "ext.mw.editor-summary-button.styles": {
      "styles": [
        "styles/theme.css"
      ],
      "position": "top",
      "targets": [
        "desktop",
        "mobile"
      ]
    }
  },
  "ResourceFileModulePaths": {
    "localBasePath": "modules",
    "remoteExtPath": "MW_EXT_EditorSummaryButtons/modules"
  },
  "manifest_version": 2
}
